%YAML 1.1
%TAG !u! tag:unity3d.com,2011:
--- !u!1001 &444346098805612929
PrefabInstance:
  m_ObjectHideFlags: 0
  serializedVersion: 2
  m_Modification:
    m_TransformParent: {fileID: 0}
    m_Modifications:
    - target: {fileID: 7439612174531900613, guid: 810bdb3a7b3ad84458c0ffd06b96120d, type: 3}
      propertyPath: m_Name
      value: table_with_stuff_5 Variant
      objectReference: {fileID: 0}
    - target: {fileID: 7815187327471677055, guid: 810bdb3a7b3ad84458c0ffd06b96120d, type: 3}
      propertyPath: m_LocalPosition.x
      value: -27.793
      objectReference: {fileID: 0}
    - target: {fileID: 7815187327471677055, guid: 810bdb3a7b3ad84458c0ffd06b96120d, type: 3}
      propertyPath: m_LocalPosition.y
      value: 0.227
      objectReference: {fileID: 0}
    - target: {fileID: 7815187327471677055, guid: 810bdb3a7b3ad84458c0ffd06b96120d, type: 3}
      propertyPath: m_LocalPosition.z
      value: -8.357
      objectReference: {fileID: 0}
    - target: {fileID: 7815187327471677055, guid: 810bdb3a7b3ad84458c0ffd06b96120d, type: 3}
      propertyPath: m_LocalRotation.x
      value: -0
      objectReference: {fileID: 0}
    - target: {fileID: 7815187327471677055, guid: 810bdb3a7b3ad84458c0ffd06b96120d, type: 3}
      propertyPath: m_LocalRotation.y
      value: -0.70710576
      objectReference: {fileID: 0}
    - target: {fileID: 7815187327471677055, guid: 810bdb3a7b3ad84458c0ffd06b96120d, type: 3}
      propertyPath: m_LocalRotation.z
      value: -0
      objectReference: {fileID: 0}
    - target: {fileID: 7815187327471677055, guid: 810bdb3a7b3ad84458c0ffd06b96120d, type: 3}
      propertyPath: m_LocalRotation.w
      value: 0.70710784
      objectReference: {fileID: 0}
    - target: {fileID: 7815187327471677055, guid: 810bdb3a7b3ad84458c0ffd06b96120d, type: 3}
      propertyPath: m_RootOrder
      value: 0
      objectReference: {fileID: 0}
    - target: {fileID: 7815187327471677055, guid: 810bdb3a7b3ad84458c0ffd06b96120d, type: 3}
      propertyPath: m_LocalEulerAnglesHint.x
      value: 0
      objectReference: {fileID: 0}
    - target: {fileID: 7815187327471677055, guid: 810bdb3a7b3ad84458c0ffd06b96120d, type: 3}
      propertyPath: m_LocalEulerAnglesHint.y
      value: -90
      objectReference: {fileID: 0}
    - target: {fileID: 7815187327471677055, guid: 810bdb3a7b3ad84458c0ffd06b96120d, type: 3}
      propertyPath: m_LocalEulerAnglesHint.z
      value: 0
      objectReference: {fileID: 0}
    - target: {fileID: 7815187327471677055, guid: 810bdb3a7b3ad84458c0ffd06b96120d, type: 3}
      propertyPath: m_LocalScale.x
      value: 0.4
      objectReference: {fileID: 0}
    - target: {fileID: 7815187327471677055, guid: 810bdb3a7b3ad84458c0ffd06b96120d, type: 3}
      propertyPath: m_LocalScale.y
      value: 0.4
      objectReference: {fileID: 0}
    - target: {fileID: 7815187327471677055, guid: 810bdb3a7b3ad84458c0ffd06b96120d, type: 3}
      propertyPath: m_LocalScale.z
      value: 0.4
      objectReference: {fileID: 0}
    m_RemovedComponents: []
  m_SourcePrefab: {fileID: 100100000, guid: 810bdb3a7b3ad84458c0ffd06b96120d, type: 3}
--- !u!4 &7665053016813654014 stripped
Transform:
  m_CorrespondingSourceObject: {fileID: 7815187327471677055, guid: 810bdb3a7b3ad84458c0ffd06b96120d, type: 3}
  m_PrefabInstance: {fileID: 444346098805612929}
  m_PrefabAsset: {fileID: 0}
--- !u!1001 &2216559332417913267
PrefabInstance:
  m_ObjectHideFlags: 0
  serializedVersion: 2
  m_Modification:
    m_TransformParent: {fileID: 7665053016813654014}
    m_Modifications:
    - target: {fileID: -8679921383154817045, guid: e126e113f7a16e443a1203df77a0ef7e, type: 3}
      propertyPath: m_LocalPosition.x
      value: -0.408
      objectReference: {fileID: 0}
    - target: {fileID: -8679921383154817045, guid: e126e113f7a16e443a1203df77a0ef7e, type: 3}
      propertyPath: m_LocalPosition.y
      value: 0.47039998
      objectReference: {fileID: 0}
    - target: {fileID: -8679921383154817045, guid: e126e113f7a16e443a1203df77a0ef7e, type: 3}
      propertyPath: m_LocalPosition.z
      value: -0.074
      objectReference: {fileID: 0}
    - target: {fileID: -8679921383154817045, guid: e126e113f7a16e443a1203df77a0ef7e, type: 3}
      propertyPath: m_LocalRotation.x
      value: -0.3376729
      objectReference: {fileID: 0}
    - target: {fileID: -8679921383154817045, guid: e126e113f7a16e443a1203df77a0ef7e, type: 3}
      propertyPath: m_LocalRotation.y
      value: 0.6157354
      objectReference: {fileID: 0}
    - target: {fileID: -8679921383154817045, guid: e126e113f7a16e443a1203df77a0ef7e, type: 3}
      propertyPath: m_LocalRotation.z
      value: 0.6311197
      objectReference: {fileID: 0}
    - target: {fileID: -8679921383154817045, guid: e126e113f7a16e443a1203df77a0ef7e, type: 3}
      propertyPath: m_LocalRotation.w
      value: 0.32944643
      objectReference: {fileID: 0}
    - target: {fileID: -8679921383154817045, guid: e126e113f7a16e443a1203df77a0ef7e, type: 3}
      propertyPath: m_RootOrder
      value: 2
      objectReference: {fileID: 0}
    - target: {fileID: -8679921383154817045, guid: e126e113f7a16e443a1203df77a0ef7e, type: 3}
      propertyPath: m_LocalEulerAnglesHint.x
      value: -91.413
      objectReference: {fileID: 0}
    - target: {fileID: -8679921383154817045, guid: e126e113f7a16e443a1203df77a0ef7e, type: 3}
      propertyPath: m_LocalEulerAnglesHint.y
      value: 123.716995
      objectReference: {fileID: 0}
    - target: {fileID: -8679921383154817045, guid: e126e113f7a16e443a1203df77a0ef7e, type: 3}
      propertyPath: m_LocalEulerAnglesHint.z
      value: -0.014007568
      objectReference: {fileID: 0}
    - target: {fileID: -8679921383154817045, guid: e126e113f7a16e443a1203df77a0ef7e, type: 3}
      propertyPath: m_LocalScale.x
      value: 0.03431468
      objectReference: {fileID: 0}
    - target: {fileID: -8679921383154817045, guid: e126e113f7a16e443a1203df77a0ef7e, type: 3}
      propertyPath: m_LocalScale.y
      value: 0.03431468
      objectReference: {fileID: 0}
    - target: {fileID: -8679921383154817045, guid: e126e113f7a16e443a1203df77a0ef7e, type: 3}
      propertyPath: m_LocalScale.z
      value: 0.034314677
      objectReference: {fileID: 0}
    - target: {fileID: 919132149155446097, guid: e126e113f7a16e443a1203df77a0ef7e, type: 3}
      propertyPath: m_Name
      value: wrench knife (5)
      objectReference: {fileID: 0}
    m_RemovedComponents: []
  m_SourcePrefab: {fileID: 100100000, guid: e126e113f7a16e443a1203df77a0ef7e, type: 3}
--- !u!1001 &3169196222530573121
PrefabInstance:
  m_ObjectHideFlags: 0
  serializedVersion: 2
  m_Modification:
    m_TransformParent: {fileID: 7665053016813654014}
    m_Modifications:
    - target: {fileID: 8178487014914312572, guid: 9376ccd54f5f6df4a813f56926efd218, type: 3}
      propertyPath: m_LocalPosition.x
      value: 0.412
      objectReference: {fileID: 0}
    - target: {fileID: 8178487014914312572, guid: 9376ccd54f5f6df4a813f56926efd218, type: 3}
      propertyPath: m_LocalPosition.y
      value: 0.46430004
      objectReference: {fileID: 0}
    - target: {fileID: 8178487014914312572, guid: 9376ccd54f5f6df4a813f56926efd218, type: 3}
      propertyPath: m_LocalPosition.z
      value: -0.23
      objectReference: {fileID: 0}
    - target: {fileID: 8178487014914312572, guid: 9376ccd54f5f6df4a813f56926efd218, type: 3}
      propertyPath: m_LocalRotation.x
      value: -0
      objectReference: {fileID: 0}
    - target: {fileID: 8178487014914312572, guid: 9376ccd54f5f6df4a813f56926efd218, type: 3}
      propertyPath: m_LocalRotation.y
      value: -0.49999923
      objectReference: {fileID: 0}
    - target: {fileID: 8178487014914312572, guid: 9376ccd54f5f6df4a813f56926efd218, type: 3}
      propertyPath: m_LocalRotation.z
      value: -0
      objectReference: {fileID: 0}
    - target: {fileID: 8178487014914312572, guid: 9376ccd54f5f6df4a813f56926efd218, type: 3}
      propertyPath: m_LocalRotation.w
      value: 0.8660259
      objectReference: {fileID: 0}
    - target: {fileID: 8178487014914312572, guid: 9376ccd54f5f6df4a813f56926efd218, type: 3}
      propertyPath: m_RootOrder
      value: 0
      objectReference: {fileID: 0}
    - target: {fileID: 8178487014914312572, guid: 9376ccd54f5f6df4a813f56926efd218, type: 3}
      propertyPath: m_LocalEulerAnglesHint.x
      value: 0
      objectReference: {fileID: 0}
    - target: {fileID: 8178487014914312572, guid: 9376ccd54f5f6df4a813f56926efd218, type: 3}
      propertyPath: m_LocalEulerAnglesHint.y
      value: -60
      objectReference: {fileID: 0}
    - target: {fileID: 8178487014914312572, guid: 9376ccd54f5f6df4a813f56926efd218, type: 3}
      propertyPath: m_LocalEulerAnglesHint.z
      value: 0
      objectReference: {fileID: 0}
    - target: {fileID: 8178487014914312572, guid: 9376ccd54f5f6df4a813f56926efd218, type: 3}
      propertyPath: m_LocalScale.x
      value: 4
      objectReference: {fileID: 0}
    - target: {fileID: 8178487014914312572, guid: 9376ccd54f5f6df4a813f56926efd218, type: 3}
      propertyPath: m_LocalScale.y
      value: 4
      objectReference: {fileID: 0}
    - target: {fileID: 8178487014914312572, guid: 9376ccd54f5f6df4a813f56926efd218, type: 3}
      propertyPath: m_LocalScale.z
      value: 4
      objectReference: {fileID: 0}
    - target: {fileID: 8805665608116769734, guid: 9376ccd54f5f6df4a813f56926efd218, type: 3}
      propertyPath: m_Name
      value: Knife (7)
      objectReference: {fileID: 0}
    m_RemovedComponents: []
  m_SourcePrefab: {fileID: 100100000, guid: 9376ccd54f5f6df4a813f56926efd218, type: 3}
--- !u!1001 &4288488598855798761
PrefabInstance:
  m_ObjectHideFlags: 0
  serializedVersion: 2
  m_Modification:
    m_TransformParent: {fileID: 7665053016813654014}
    m_Modifications:
    - target: {fileID: 3278793573954390959, guid: e7a969cfb9444344b814b7e869c5fbe2, type: 3}
      propertyPath: m_Name
      value: Hammer_Prop (1)
      objectReference: {fileID: 0}
    - target: {fileID: 3278793573954557839, guid: e7a969cfb9444344b814b7e869c5fbe2, type: 3}
      propertyPath: m_LocalPosition.x
      value: 0.253
      objectReference: {fileID: 0}
    - target: {fileID: 3278793573954557839, guid: e7a969cfb9444344b814b7e869c5fbe2, type: 3}
      propertyPath: m_LocalPosition.y
      value: 0.478
      objectReference: {fileID: 0}
    - target: {fileID: 3278793573954557839, guid: e7a969cfb9444344b814b7e869c5fbe2, type: 3}
      propertyPath: m_LocalPosition.z
      value: 0.206
      objectReference: {fileID: 0}
    - target: {fileID: 3278793573954557839, guid: e7a969cfb9444344b814b7e869c5fbe2, type: 3}
      propertyPath: m_LocalRotation.x
      value: 0.43045938
      objectReference: {fileID: 0}
    - target: {fileID: 3278793573954557839, guid: e7a969cfb9444344b814b7e869c5fbe2, type: 3}
      propertyPath: m_LocalRotation.y
      value: 0.5609859
      objectReference: {fileID: 0}
    - target: {fileID: 3278793573954557839, guid: e7a969cfb9444344b814b7e869c5fbe2, type: 3}
      propertyPath: m_LocalRotation.z
      value: -0.56098366
      objectReference: {fileID: 0}
    - target: {fileID: 3278793573954557839, guid: e7a969cfb9444344b814b7e869c5fbe2, type: 3}
      propertyPath: m_LocalRotation.w
      value: 0.43046117
      objectReference: {fileID: 0}
    - target: {fileID: 3278793573954557839, guid: e7a969cfb9444344b814b7e869c5fbe2, type: 3}
      propertyPath: m_RootOrder
      value: 1
      objectReference: {fileID: 0}
    - target: {fileID: 3278793573954557839, guid: e7a969cfb9444344b814b7e869c5fbe2, type: 3}
      propertyPath: m_LocalEulerAnglesHint.x
      value: 90
      objectReference: {fileID: 0}
    - target: {fileID: 3278793573954557839, guid: e7a969cfb9444344b814b7e869c5fbe2, type: 3}
      propertyPath: m_LocalEulerAnglesHint.y
      value: 0
      objectReference: {fileID: 0}
    - target: {fileID: 3278793573954557839, guid: e7a969cfb9444344b814b7e869c5fbe2, type: 3}
      propertyPath: m_LocalEulerAnglesHint.z
      value: -105
      objectReference: {fileID: 0}
    - target: {fileID: 3278793573954557839, guid: e7a969cfb9444344b814b7e869c5fbe2, type: 3}
      propertyPath: m_LocalScale.x
      value: 1.4434401
      objectReference: {fileID: 0}
    - target: {fileID: 3278793573954557839, guid: e7a969cfb9444344b814b7e869c5fbe2, type: 3}
      propertyPath: m_LocalScale.y
      value: 1.44344
      objectReference: {fileID: 0}
    - target: {fileID: 3278793573954557839, guid: e7a969cfb9444344b814b7e869c5fbe2, type: 3}
      propertyPath: m_LocalScale.z
      value: 1.44344
      objectReference: {fileID: 0}
    m_RemovedComponents: []
  m_SourcePrefab: {fileID: 100100000, guid: e7a969cfb9444344b814b7e869c5fbe2, type: 3}
--- !u!1001 &4747357347848532436
PrefabInstance:
  m_ObjectHideFlags: 0
  serializedVersion: 2
  m_Modification:
    m_TransformParent: {fileID: 7665053016813654014}
    m_Modifications:
    - target: {fileID: 3777824539562098520, guid: 9f8408d4603fa254aa0d6bbc6a675b96, type: 3}
      propertyPath: m_LocalPosition.x
      value: 0.69020176
      objectReference: {fileID: 0}
    - target: {fileID: 3777824539562098520, guid: 9f8408d4603fa254aa0d6bbc6a675b96, type: 3}
      propertyPath: m_LocalPosition.y
      value: 0.4608
      objectReference: {fileID: 0}
    - target: {fileID: 3777824539562098520, guid: 9f8408d4603fa254aa0d6bbc6a675b96, type: 3}
      propertyPath: m_LocalPosition.z
      value: -0.3155955
      objectReference: {fileID: 0}
    - target: {fileID: 3777824539562098520, guid: 9f8408d4603fa254aa0d6bbc6a675b96, type: 3}
      propertyPath: m_LocalRotation.x
      value: 0.000000057601248
      objectReference: {fileID: 0}
    - target: {fileID: 3777824539562098520, guid: 9f8408d4603fa254aa0d6bbc6a675b96, type: 3}
      propertyPath: m_LocalRotation.y
      value: 0.70710576
      objectReference: {fileID: 0}
    - target: {fileID: 3777824539562098520, guid: 9f8408d4603fa254aa0d6bbc6a675b96, type: 3}
      propertyPath: m_LocalRotation.z
      value: -0.000000057601078
      objectReference: {fileID: 0}
    - target: {fileID: 3777824539562098520, guid: 9f8408d4603fa254aa0d6bbc6a675b96, type: 3}
      propertyPath: m_LocalRotation.w
      value: 0.70710784
      objectReference: {fileID: 0}
    - target: {fileID: 3777824539562098520, guid: 9f8408d4603fa254aa0d6bbc6a675b96, type: 3}
      propertyPath: m_RootOrder
      value: 4
      objectReference: {fileID: 0}
    - target: {fileID: 3777824539562098520, guid: 9f8408d4603fa254aa0d6bbc6a675b96, type: 3}
      propertyPath: m_LocalEulerAnglesHint.x
      value: 0
      objectReference: {fileID: 0}
    - target: {fileID: 3777824539562098520, guid: 9f8408d4603fa254aa0d6bbc6a675b96, type: 3}
      propertyPath: m_LocalEulerAnglesHint.y
      value: 0
      objectReference: {fileID: 0}
    - target: {fileID: 3777824539562098520, guid: 9f8408d4603fa254aa0d6bbc6a675b96, type: 3}
      propertyPath: m_LocalEulerAnglesHint.z
      value: 0
      objectReference: {fileID: 0}
    - target: {fileID: 3777824539562098520, guid: 9f8408d4603fa254aa0d6bbc6a675b96, type: 3}
      propertyPath: m_LocalScale.x
      value: 0.2
      objectReference: {fileID: 0}
    - target: {fileID: 3777824539562098520, guid: 9f8408d4603fa254aa0d6bbc6a675b96, type: 3}
      propertyPath: m_LocalScale.y
      value: 0.2
      objectReference: {fileID: 0}
    - target: {fileID: 3777824539562098520, guid: 9f8408d4603fa254aa0d6bbc6a675b96, type: 3}
      propertyPath: m_LocalScale.z
      value: 0.2
      objectReference: {fileID: 0}
    - target: {fileID: 4550421005896148450, guid: 9f8408d4603fa254aa0d6bbc6a675b96, type: 3}
      propertyPath: m_Name
      value: mug_1 Variant
      objectReference: {fileID: 0}
    m_RemovedComponents: []
  m_SourcePrefab: {fileID: 100100000, guid: 9f8408d4603fa254aa0d6bbc6a675b96, type: 3}
--- !u!1001 &6935021694715513680
PrefabInstance:
  m_ObjectHideFlags: 0
  serializedVersion: 2
  m_Modification:
    m_TransformParent: {fileID: 7665053016813654014}
    m_Modifications:
    - target: {fileID: 4981847774190239161, guid: 7feebecd32f37184ab98694f54eb52b5, type: 3}
      propertyPath: m_LocalPosition.x
      value: -0.1597997
      objectReference: {fileID: 0}
    - target: {fileID: 4981847774190239161, guid: 7feebecd32f37184ab98694f54eb52b5, type: 3}
      propertyPath: m_LocalPosition.y
      value: 0.48619998
      objectReference: {fileID: 0}
    - target: {fileID: 4981847774190239161, guid: 7feebecd32f37184ab98694f54eb52b5, type: 3}
      propertyPath: m_LocalPosition.z
      value: 0.04400207
      objectReference: {fileID: 0}
    - target: {fileID: 4981847774190239161, guid: 7feebecd32f37184ab98694f54eb52b5, type: 3}
      propertyPath: m_LocalRotation.x
      value: 0.7071057
      objectReference: {fileID: 0}
    - target: {fileID: 4981847774190239161, guid: 7feebecd32f37184ab98694f54eb52b5, type: 3}
      propertyPath: m_LocalRotation.y
      value: 0.000000029802322
      objectReference: {fileID: 0}
    - target: {fileID: 4981847774190239161, guid: 7feebecd32f37184ab98694f54eb52b5, type: 3}
      propertyPath: m_LocalRotation.z
      value: -0
      objectReference: {fileID: 0}
    - target: {fileID: 4981847774190239161, guid: 7feebecd32f37184ab98694f54eb52b5, type: 3}
      propertyPath: m_LocalRotation.w
      value: 0.7071079
      objectReference: {fileID: 0}
    - target: {fileID: 4981847774190239161, guid: 7feebecd32f37184ab98694f54eb52b5, type: 3}
      propertyPath: m_RootOrder
      value: 5
      objectReference: {fileID: 0}
    - target: {fileID: 4981847774190239161, guid: 7feebecd32f37184ab98694f54eb52b5, type: 3}
      propertyPath: m_LocalEulerAnglesHint.x
      value: 90
      objectReference: {fileID: 0}
    - target: {fileID: 4981847774190239161, guid: 7feebecd32f37184ab98694f54eb52b5, type: 3}
      propertyPath: m_LocalEulerAnglesHint.y
      value: 0
      objectReference: {fileID: 0}
    - target: {fileID: 4981847774190239161, guid: 7feebecd32f37184ab98694f54eb52b5, type: 3}
      propertyPath: m_LocalEulerAnglesHint.z
      value: 90
      objectReference: {fileID: 0}
    - target: {fileID: 4981847774190239161, guid: 7feebecd32f37184ab98694f54eb52b5, type: 3}
      propertyPath: m_LocalScale.x
      value: 0.21980245
      objectReference: {fileID: 0}
    - target: {fileID: 4981847774190239161, guid: 7feebecd32f37184ab98694f54eb52b5, type: 3}
      propertyPath: m_LocalScale.y
      value: 0.21980245
      objectReference: {fileID: 0}
    - target: {fileID: 4981847774190239161, guid: 7feebecd32f37184ab98694f54eb52b5, type: 3}
      propertyPath: m_LocalScale.z
      value: 0.21980245
      objectReference: {fileID: 0}
    - target: {fileID: 5649981834941802243, guid: 7feebecd32f37184ab98694f54eb52b5, type: 3}
      propertyPath: m_Name
      value: 1911_Prop
      objectReference: {fileID: 0}
    m_RemovedComponents: []
  m_SourcePrefab: {fileID: 100100000, guid: 7feebecd32f37184ab98694f54eb52b5, type: 3}
--- !u!1001 &8152408654286682317
PrefabInstance:
  m_ObjectHideFlags: 0
  serializedVersion: 2
  m_Modification:
    m_TransformParent: {fileID: 7665053016813654014}
    m_Modifications:
    - target: {fileID: -8679921383154817045, guid: e126e113f7a16e443a1203df77a0ef7e, type: 3}
      propertyPath: m_LocalPosition.x
      value: -0.66376203
      objectReference: {fileID: 0}
    - target: {fileID: -8679921383154817045, guid: e126e113f7a16e443a1203df77a0ef7e, type: 3}
      propertyPath: m_LocalPosition.y
      value: 0.46908998
      objectReference: {fileID: 0}
    - target: {fileID: -8679921383154817045, guid: e126e113f7a16e443a1203df77a0ef7e, type: 3}
      propertyPath: m_LocalPosition.z
      value: -0.35078245
      objectReference: {fileID: 0}
    - target: {fileID: -8679921383154817045, guid: e126e113f7a16e443a1203df77a0ef7e, type: 3}
      propertyPath: m_LocalRotation.x
      value: 0.37772784
      objectReference: {fileID: 0}
    - target: {fileID: -8679921383154817045, guid: e126e113f7a16e443a1203df77a0ef7e, type: 3}
      propertyPath: m_LocalRotation.y
      value: 0.5931773
      objectReference: {fileID: 0}
    - target: {fileID: -8679921383154817045, guid: e126e113f7a16e443a1203df77a0ef7e, type: 3}
      propertyPath: m_LocalRotation.z
      value: 0.607994
      objectReference: {fileID: 0}
    - target: {fileID: -8679921383154817045, guid: e126e113f7a16e443a1203df77a0ef7e, type: 3}
      propertyPath: m_LocalRotation.w
      value: -0.36851817
      objectReference: {fileID: 0}
    - target: {fileID: -8679921383154817045, guid: e126e113f7a16e443a1203df77a0ef7e, type: 3}
      propertyPath: m_RootOrder
      value: 3
      objectReference: {fileID: 0}
    - target: {fileID: -8679921383154817045, guid: e126e113f7a16e443a1203df77a0ef7e, type: 3}
      propertyPath: m_LocalEulerAnglesHint.x
      value: -91.414
      objectReference: {fileID: 0}
    - target: {fileID: -8679921383154817045, guid: e126e113f7a16e443a1203df77a0ef7e, type: 3}
      propertyPath: m_LocalEulerAnglesHint.y
      value: 243.715
      objectReference: {fileID: 0}
    - target: {fileID: -8679921383154817045, guid: e126e113f7a16e443a1203df77a0ef7e, type: 3}
      propertyPath: m_LocalEulerAnglesHint.z
      value: -0.013000488
      objectReference: {fileID: 0}
    - target: {fileID: -8679921383154817045, guid: e126e113f7a16e443a1203df77a0ef7e, type: 3}
      propertyPath: m_LocalScale.x
      value: 0.022037232
      objectReference: {fileID: 0}
    - target: {fileID: -8679921383154817045, guid: e126e113f7a16e443a1203df77a0ef7e, type: 3}
      propertyPath: m_LocalScale.y
      value: 0.022037232
      objectReference: {fileID: 0}
    - target: {fileID: -8679921383154817045, guid: e126e113f7a16e443a1203df77a0ef7e, type: 3}
      propertyPath: m_LocalScale.z
      value: 0.022037229
      objectReference: {fileID: 0}
    - target: {fileID: 919132149155446097, guid: e126e113f7a16e443a1203df77a0ef7e, type: 3}
      propertyPath: m_Name
      value: wrench knife (6)
      objectReference: {fileID: 0}
    m_RemovedComponents: []
  m_SourcePrefab: {fileID: 100100000, guid: e126e113f7a16e443a1203df77a0ef7e, type: 3}
