%YAML 1.1
%TAG !u! tag:unity3d.com,2011:
--- !u!114 &11400000
MonoBehaviour:
  m_ObjectHideFlags: 0
  m_CorrespondingSourceObject: {fileID: 0}
  m_PrefabInstance: {fileID: 0}
  m_PrefabAsset: {fileID: 0}
  m_GameObject: {fileID: 0}
  m_Enabled: 1
  m_EditorHideFlags: 0
  m_Script: {fileID: -1893448595, guid: a040fb66244a7f54289914d98ea4ef7d, type: 3}
  m_Name: ui_slide
  m_EditorClassIdentifier: 
  _data:
    _json: '{"graph":{"variables":{"collection":{"$content":[{"name":"anchorpostion","value":{"x":0.0,"y":0.0,"$type":"UnityEngine.Vector2"},"$version":"A"}],"$version":"A"},"$version":"A"},"controlInputDefinitions":[],"controlOutputDefinitions":[],"valueInputDefinitions":[],"valueOutputDefinitions":[],"title":null,"summary":null,"pan":{"x":-345.3633,"y":-57.45095},"zoom":1.0,"elements":[{"coroutine":false,"defaultValues":{"key":{"$content":"Escape","$type":"UnityEngine.KeyCode"},"action":{"$content":"Down","$type":"Ludiq.PressState"}},"position":{"x":-370.0,"y":-259.0},"guid":"63276425-00e9-45fd-ba68-966a24e3b81e","$version":"A","$type":"Bolt.OnKeyboardInput","$id":"10"},{"specifyFallback":false,"kind":"Object","defaultValues":{"name":{"$content":"MMButton","$type":"System.String"},"object":null},"position":{"x":-673.0,"y":-5.0},"guid":"f62e8ae8-85cd-429a-9779-d9d171fe0a66","$version":"A","$type":"Bolt.GetVariable","$id":"12"},{"specifyFallback":false,"kind":"Object","defaultValues":{"name":{"$content":"ResumeButton","$type":"System.String"},"object":null},"position":{"x":-696.0,"y":-115.0},"guid":"00904f46-2575-4697-9e66-4437f6caf52f","$version":"A","$type":"Bolt.GetVariable","$id":"14"},{"coroutine":false,"defaultValues":{"target":null},"position":{"x":-360.0,"y":4.0},"guid":"fd18b7cb-9393-4013-af62-3239960d404f","$version":"A","$type":"Bolt.OnButtonClick","$id":"16"},{"coroutine":false,"defaultValues":{"target":null},"position":{"x":-357.0,"y":-78.0},"guid":"2b1b1fc6-6889-4621-b3e3-cbbb1793bf94","$version":"A","$type":"Bolt.OnButtonClick","$id":"18"},{"coroutine":false,"defaultValues":{"target":null},"position":{"x":-359.0,"y":-160.0},"guid":"ae0cf763-008c-44f7-a5b6-e507c26dd0d8","$version":"A","$type":"Bolt.OnButtonClick","$id":"20"},{"chainable":false,"member":{"name":"DOAnchorPosY","parameterTypes":["System.Single","System.Single","System.Boolean"],"targetType":"UnityEngine.RectTransform","targetTypeName":"UnityEngine.RectTransform","$version":"A"},"defaultValues":{"target":null,"%endValue":{"$content":0.0,"$type":"System.Single"},"%duration":{"$content":0.3,"$type":"System.Single"},"%snapping":{"$content":false,"$type":"System.Boolean"}},"position":{"x":741.0,"y":-14.0},"guid":"33d27589-a3b9-4100-b469-7341f1ac6395","$version":"A","$type":"Bolt.InvokeMember","$id":"22"},{"chainable":false,"member":{"name":"PauseGame","parameterTypes":[],"targetType":"PauseController","targetTypeName":"PauseController","$version":"A"},"defaultValues":{"target":null},"position":{"x":1153.0,"y":186.0},"guid":"bcb4c748-57bc-4c8f-81c2-d60e064df73a","$version":"A","$type":"Bolt.InvokeMember","$id":"25"},{"chainable":false,"member":{"name":"ResumeGame","parameterTypes":[],"targetType":"PauseController","targetTypeName":"PauseController","$version":"A"},"defaultValues":{"target":null},"position":{"x":1147.0,"y":1.0},"guid":"721bca97-0955-48dc-8ab5-f1221ebed210","$version":"A","$type":"Bolt.InvokeMember","$id":"28"},{"type":"System.Single","value":{"$content":0.0,"$type":"System.Single"},"defaultValues":{},"position":{"x":-360.0,"y":218.0},"guid":"9467ebbb-1d2f-448e-9b37-5ac9da139307","$version":"A","$type":"Bolt.Literal","$id":"31"},{"coroutine":false,"defaultValues":{},"position":{"x":22.0,"y":-591.0},"guid":"e07e719a-d511-46c4-ad93-9a3d8429259f","$version":"A","$type":"Bolt.Start","$id":"33"},{"specifyFallback":false,"kind":"Object","defaultValues":{"name":{"$content":"ResetButtom","$type":"System.String"},"object":null},"position":{"x":-703.0,"y":-229.0},"guid":"94769576-b291-45fb-9886-d2750a5084b4","$version":"A","$type":"Bolt.GetVariable","$id":"35"},{"chainable":false,"member":{"name":"DOAnchorPosY","parameterTypes":["System.Single","System.Single","System.Boolean"],"targetType":"UnityEngine.RectTransform","targetTypeName":"UnityEngine.RectTransform","$version":"A"},"defaultValues":{"target":null,"%endValue":{"$content":0.0,"$type":"System.Single"},"%duration":{"$content":0.3,"$type":"System.Single"},"%snapping":{"$content":false,"$type":"System.Boolean"}},"position":{"x":744.0,"y":195.0},"guid":"ef63301a-3479-4693-bfa3-81a79bd0bc36","$version":"A","$type":"Bolt.InvokeMember","$id":"37"},{"member":{"name":"y","parameterTypes":null,"targetType":"UnityEngine.Vector2","targetTypeName":"UnityEngine.Vector2","$version":"A"},"defaultValues":{"target":{"x":0.0,"y":0.0,"$type":"UnityEngine.Vector2"}},"position":{"x":551.0,"y":-171.0},"guid":"21cbaaf1-20d7-4150-b578-d6543cdbeb36","$version":"A","$type":"Bolt.GetMember","$id":"40"},{"defaultValues":{},"position":{"x":93.0,"y":-10.0},"guid":"fc758a7a-fdea-4c8f-b930-41c1aa6d475a","$version":"A","$type":"Bolt.Branch","$id":"43"},{"specifyFallback":false,"kind":"Graph","defaultValues":{"name":{"$content":"anchorpostion","$type":"System.String"}},"position":{"x":321.0,"y":-171.0},"guid":"10de3b1c-7626-4c3b-a6d5-fc9868545512","$version":"A","$type":"Bolt.GetVariable","$id":"45"},{"member":{"name":"anchoredPosition","parameterTypes":null,"targetType":"UnityEngine.RectTransform","targetTypeName":"UnityEngine.RectTransform","$version":"A"},"defaultValues":{"target":null},"position":{"x":23.0,"y":-481.0},"guid":"94ddb398-b981-4655-b904-700d536fd7f2","$version":"A","$type":"Bolt.GetMember","$id":"47"},{"member":{"name":"y","parameterTypes":null,"targetType":"UnityEngine.Vector2","targetTypeName":"UnityEngine.Vector2","$version":"A"},"defaultValues":{"target":{"x":0.0,"y":0.0,"$type":"UnityEngine.Vector2"}},"position":{"x":-380.0,"y":89.0},"guid":"a1457dd4-156b-467b-9e49-efaace5c0041","$version":"A","$type":"Bolt.GetMember","$id":"50"},{"chainable":false,"member":{"name":"defaultTimeScaleIndependent","parameterTypes":null,"targetType":"DG.Tweening.Core.DOTweenSettings","targetTypeName":"DG.Tweening.Core.DOTweenSettings","$version":"A"},"defaultValues":{"target":{"$content":0,"$type":"UnityEngine.Object"},"input":{"$content":true,"$type":"System.Boolean"}},"position":{"x":597.0,"y":-596.0},"guid":"e9f33056-0c75-4e72-a7fe-d3cc77177790","$version":"A","$type":"Bolt.SetMember","$id":"53"},{"member":{"name":"current","parameterTypes":null,"targetType":"PauseController","targetTypeName":"PauseController","$version":"A"},"defaultValues":{},"position":{"x":910.0,"y":125.0},"guid":"076f5655-f286-42d7-8346-5e9bdcb6b607","$version":"A","$type":"Bolt.GetMember","$id":"56"},{"member":{"name":"anchoredPosition","parameterTypes":null,"targetType":"UnityEngine.RectTransform","targetTypeName":"UnityEngine.RectTransform","$version":"A"},"defaultValues":{"target":null},"position":{"x":-652.0,"y":149.0},"guid":"437ca066-bd01-46b2-9cd2-23e26461255d","$version":"A","$type":"Bolt.GetMember","$id":"59"},{"kind":"Graph","defaultValues":{"name":{"$content":"anchorpostion","$type":"System.String"}},"position":{"x":311.0,"y":-600.0},"guid":"9b3f379b-9788-4276-8f2c-a583472ed437","$version":"A","$type":"Bolt.SetVariable","$id":"62"},{"numeric":false,"defaultValues":{},"position":{"x":-205.0,"y":89.0},"guid":"0a32bea4-9e53-4d4d-bffc-a5e607b7b6fb","$version":"A","$type":"Bolt.Equal","$id":"64"},{"sourceUnit":{"$ref":"62"},"sourceKey":"assigned","destinationUnit":{"$ref":"53"},"destinationKey":"assign","guid":"161aaa8d-bb9b-4d52-9cb2-5b8e8537d651","$type":"Bolt.ControlConnection"},{"sourceUnit":{"$ref":"10"},"sourceKey":"trigger","destinationUnit":{"$ref":"43"},"destinationKey":"enter","guid":"955abaa8-9f62-4e5a-ad92-ceacb398f705","$type":"Bolt.ControlConnection"},{"sourceUnit":{"$ref":"18"},"sourceKey":"trigger","destinationUnit":{"$ref":"43"},"destinationKey":"enter","guid":"7d378c57-6087-4489-9a16-bf0d1f1bca0e","$type":"Bolt.ControlConnection"},{"sourceUnit":{"$ref":"20"},"sourceKey":"trigger","destinationUnit":{"$ref":"43"},"destinationKey":"enter","guid":"015b29cf-0f2a-47cd-a082-7c8c03e15685","$type":"Bolt.ControlConnection"},{"sourceUnit":{"$ref":"43"},"sourceKey":"ifTrue","destinationUnit":{"$ref":"22"},"destinationKey":"enter","guid":"03b589d5-a5d5-49a2-8660-c4ea2c53d2bf","$type":"Bolt.ControlConnection"},{"sourceUnit":{"$ref":"43"},"sourceKey":"ifFalse","destinationUnit":{"$ref":"37"},"destinationKey":"enter","guid":"065cb67a-463a-40a6-a6b8-a08a0753c6e6","$type":"Bolt.ControlConnection"},{"sourceUnit":{"$ref":"22"},"sourceKey":"exit","destinationUnit":{"$ref":"28"},"destinationKey":"enter","guid":"5abbae1d-1581-461f-b9b6-8bdcdea780c9","$type":"Bolt.ControlConnection"},{"sourceUnit":{"$ref":"37"},"sourceKey":"exit","destinationUnit":{"$ref":"25"},"destinationKey":"enter","guid":"275241fc-edda-4d62-8606-8aa28c5c567a","$type":"Bolt.ControlConnection"},{"sourceUnit":{"$ref":"33"},"sourceKey":"trigger","destinationUnit":{"$ref":"62"},"destinationKey":"assign","guid":"0aa9d632-5d07-4fcb-ad27-38b97acce2ed","$type":"Bolt.ControlConnection"},{"sourceUnit":{"$ref":"16"},"sourceKey":"trigger","destinationUnit":{"$ref":"43"},"destinationKey":"enter","guid":"a0169a96-4c51-45db-aebd-c255a1abd389","$type":"Bolt.ControlConnection"},{"sourceUnit":{"$ref":"50"},"sourceKey":"value","destinationUnit":{"$ref":"64"},"destinationKey":"a","guid":"5587904d-c3f5-4ea8-ba15-71f0118d8b82","$type":"Bolt.ValueConnection"},{"sourceUnit":{"$ref":"31"},"sourceKey":"output","destinationUnit":{"$ref":"64"},"destinationKey":"b","guid":"92a4d274-e69e-42cf-9ef1-586e82d24a3b","$type":"Bolt.ValueConnection"},{"sourceUnit":{"$ref":"56"},"sourceKey":"value","destinationUnit":{"$ref":"25"},"destinationKey":"target","guid":"ca769c69-f517-4e89-b8d3-d03c780f14d5","$type":"Bolt.ValueConnection"},{"sourceUnit":{"$ref":"47"},"sourceKey":"value","destinationUnit":{"$ref":"62"},"destinationKey":"input","guid":"c8936cee-7eac-42c6-aaed-8331f6ab08fd","$type":"Bolt.ValueConnection"},{"sourceUnit":{"$ref":"12"},"sourceKey":"value","destinationUnit":{"$ref":"16"},"destinationKey":"target","guid":"b3450007-d1f6-45ff-a345-a570ababa7bf","$type":"Bolt.ValueConnection"},{"sourceUnit":{"$ref":"40"},"sourceKey":"value","destinationUnit":{"$ref":"22"},"destinationKey":"%endValue","guid":"3a7bb2f5-e2c1-4dfb-a784-ae9da5e72511","$type":"Bolt.ValueConnection"},{"sourceUnit":{"$ref":"59"},"sourceKey":"value","destinationUnit":{"$ref":"50"},"destinationKey":"target","guid":"98345443-e338-4b05-b648-831a5c80c999","$type":"Bolt.ValueConnection"},{"sourceUnit":{"$ref":"45"},"sourceKey":"value","destinationUnit":{"$ref":"40"},"destinationKey":"target","guid":"3e28a6a6-1e26-4fc5-acfa-9c0b9caadddd","$type":"Bolt.ValueConnection"},{"sourceUnit":{"$ref":"56"},"sourceKey":"value","destinationUnit":{"$ref":"28"},"destinationKey":"target","guid":"4557e002-a637-4cab-8e27-22513c0dd58b","$type":"Bolt.ValueConnection"},{"sourceUnit":{"$ref":"64"},"sourceKey":"equal","destinationUnit":{"$ref":"43"},"destinationKey":"condition","guid":"2322639a-0e3a-4391-afbf-08fa4462e665","$type":"Bolt.ValueConnection"},{"sourceUnit":{"$ref":"14"},"sourceKey":"value","destinationUnit":{"$ref":"18"},"destinationKey":"target","guid":"d0b310ee-a511-4d9d-8b38-759fb489b639","$type":"Bolt.ValueConnection"},{"sourceUnit":{"$ref":"35"},"sourceKey":"value","destinationUnit":{"$ref":"20"},"destinationKey":"target","guid":"d442429e-9c19-4d56-9a6b-dd8a72959312","$type":"Bolt.ValueConnection"}],"$version":"A"}}'
    _objectReferences:
    - {fileID: 11400000, guid: 14cba5f0b6cbbbd47b015c914f546fe3, type: 2}
