%YAML 1.1
%TAG !u! tag:unity3d.com,2011:
--- !u!1001 &6757590398448517308
PrefabInstance:
  m_ObjectHideFlags: 0
  serializedVersion: 2
  m_Modification:
    m_TransformParent: {fileID: 6559318551216196137}
    m_Modifications:
    - target: {fileID: 288048239926260630, guid: ad2486aa0ee7b464592d013acef8c7c0, type: 3}
      propertyPath: m_LocalPosition.x
      value: -0.3659154
      objectReference: {fileID: 0}
    - target: {fileID: 288048239926260630, guid: ad2486aa0ee7b464592d013acef8c7c0, type: 3}
      propertyPath: m_LocalPosition.y
      value: 1.1537138
      objectReference: {fileID: 0}
    - target: {fileID: 288048239926260630, guid: ad2486aa0ee7b464592d013acef8c7c0, type: 3}
      propertyPath: m_LocalPosition.z
      value: -0.38787857
      objectReference: {fileID: 0}
    - target: {fileID: 288048239926260630, guid: ad2486aa0ee7b464592d013acef8c7c0, type: 3}
      propertyPath: m_LocalRotation.x
      value: -0.00000005760092
      objectReference: {fileID: 0}
    - target: {fileID: 288048239926260630, guid: ad2486aa0ee7b464592d013acef8c7c0, type: 3}
      propertyPath: m_LocalRotation.y
      value: -0.7071099
      objectReference: {fileID: 0}
    - target: {fileID: 288048239926260630, guid: ad2486aa0ee7b464592d013acef8c7c0, type: 3}
      propertyPath: m_LocalRotation.z
      value: 0.000000057601405
      objectReference: {fileID: 0}
    - target: {fileID: 288048239926260630, guid: ad2486aa0ee7b464592d013acef8c7c0, type: 3}
      propertyPath: m_LocalRotation.w
      value: -0.7071037
      objectReference: {fileID: 0}
    - target: {fileID: 288048239926260630, guid: ad2486aa0ee7b464592d013acef8c7c0, type: 3}
      propertyPath: m_RootOrder
      value: 4
      objectReference: {fileID: 0}
    - target: {fileID: 288048239926260630, guid: ad2486aa0ee7b464592d013acef8c7c0, type: 3}
      propertyPath: m_LocalEulerAnglesHint.x
      value: 0
      objectReference: {fileID: 0}
    - target: {fileID: 288048239926260630, guid: ad2486aa0ee7b464592d013acef8c7c0, type: 3}
      propertyPath: m_LocalEulerAnglesHint.y
      value: -269.999
      objectReference: {fileID: 0}
    - target: {fileID: 288048239926260630, guid: ad2486aa0ee7b464592d013acef8c7c0, type: 3}
      propertyPath: m_LocalEulerAnglesHint.z
      value: 0
      objectReference: {fileID: 0}
    - target: {fileID: 288048239926260630, guid: ad2486aa0ee7b464592d013acef8c7c0, type: 3}
      propertyPath: m_LocalScale.x
      value: 0.56934637
      objectReference: {fileID: 0}
    - target: {fileID: 288048239926260630, guid: ad2486aa0ee7b464592d013acef8c7c0, type: 3}
      propertyPath: m_LocalScale.y
      value: 0.56934637
      objectReference: {fileID: 0}
    - target: {fileID: 288048239926260630, guid: ad2486aa0ee7b464592d013acef8c7c0, type: 3}
      propertyPath: m_LocalScale.z
      value: 0.56934637
      objectReference: {fileID: 0}
    - target: {fileID: 627279035135387948, guid: ad2486aa0ee7b464592d013acef8c7c0, type: 3}
      propertyPath: m_Name
      value: box2 (4)
      objectReference: {fileID: 0}
    m_RemovedComponents: []
  m_SourcePrefab: {fileID: 100100000, guid: ad2486aa0ee7b464592d013acef8c7c0, type: 3}
--- !u!1001 &6757590398474056905
PrefabInstance:
  m_ObjectHideFlags: 0
  serializedVersion: 2
  m_Modification:
    m_TransformParent: {fileID: 6559318551216196137}
    m_Modifications:
    - target: {fileID: 288048239926260630, guid: ad2486aa0ee7b464592d013acef8c7c0, type: 3}
      propertyPath: m_LocalPosition.x
      value: 0.44788593
      objectReference: {fileID: 0}
    - target: {fileID: 288048239926260630, guid: ad2486aa0ee7b464592d013acef8c7c0, type: 3}
      propertyPath: m_LocalPosition.y
      value: 1.1537138
      objectReference: {fileID: 0}
    - target: {fileID: 288048239926260630, guid: ad2486aa0ee7b464592d013acef8c7c0, type: 3}
      propertyPath: m_LocalPosition.z
      value: -0.3890532
      objectReference: {fileID: 0}
    - target: {fileID: 288048239926260630, guid: ad2486aa0ee7b464592d013acef8c7c0, type: 3}
      propertyPath: m_LocalRotation.x
      value: 0.000000057601245
      objectReference: {fileID: 0}
    - target: {fileID: 288048239926260630, guid: ad2486aa0ee7b464592d013acef8c7c0, type: 3}
      propertyPath: m_LocalRotation.y
      value: -0.70710576
      objectReference: {fileID: 0}
    - target: {fileID: 288048239926260630, guid: ad2486aa0ee7b464592d013acef8c7c0, type: 3}
      propertyPath: m_LocalRotation.z
      value: 0.00000005760109
      objectReference: {fileID: 0}
    - target: {fileID: 288048239926260630, guid: ad2486aa0ee7b464592d013acef8c7c0, type: 3}
      propertyPath: m_LocalRotation.w
      value: 0.7071079
      objectReference: {fileID: 0}
    - target: {fileID: 288048239926260630, guid: ad2486aa0ee7b464592d013acef8c7c0, type: 3}
      propertyPath: m_RootOrder
      value: 5
      objectReference: {fileID: 0}
    - target: {fileID: 288048239926260630, guid: ad2486aa0ee7b464592d013acef8c7c0, type: 3}
      propertyPath: m_LocalEulerAnglesHint.x
      value: 0
      objectReference: {fileID: 0}
    - target: {fileID: 288048239926260630, guid: ad2486aa0ee7b464592d013acef8c7c0, type: 3}
      propertyPath: m_LocalEulerAnglesHint.y
      value: -90
      objectReference: {fileID: 0}
    - target: {fileID: 288048239926260630, guid: ad2486aa0ee7b464592d013acef8c7c0, type: 3}
      propertyPath: m_LocalEulerAnglesHint.z
      value: 0
      objectReference: {fileID: 0}
    - target: {fileID: 288048239926260630, guid: ad2486aa0ee7b464592d013acef8c7c0, type: 3}
      propertyPath: m_LocalScale.x
      value: 0.56934637
      objectReference: {fileID: 0}
    - target: {fileID: 288048239926260630, guid: ad2486aa0ee7b464592d013acef8c7c0, type: 3}
      propertyPath: m_LocalScale.y
      value: 0.56934637
      objectReference: {fileID: 0}
    - target: {fileID: 288048239926260630, guid: ad2486aa0ee7b464592d013acef8c7c0, type: 3}
      propertyPath: m_LocalScale.z
      value: 0.56934637
      objectReference: {fileID: 0}
    - target: {fileID: 627279035135387948, guid: ad2486aa0ee7b464592d013acef8c7c0, type: 3}
      propertyPath: m_Name
      value: box2 (5)
      objectReference: {fileID: 0}
    m_RemovedComponents: []
  m_SourcePrefab: {fileID: 100100000, guid: ad2486aa0ee7b464592d013acef8c7c0, type: 3}
--- !u!1001 &6757590398701924622
PrefabInstance:
  m_ObjectHideFlags: 0
  serializedVersion: 2
  m_Modification:
    m_TransformParent: {fileID: 6559318551216196137}
    m_Modifications:
    - target: {fileID: 288048239926260630, guid: ad2486aa0ee7b464592d013acef8c7c0, type: 3}
      propertyPath: m_LocalPosition.x
      value: -0.3678122
      objectReference: {fileID: 0}
    - target: {fileID: 288048239926260630, guid: ad2486aa0ee7b464592d013acef8c7c0, type: 3}
      propertyPath: m_LocalPosition.y
      value: 1.1537138
      objectReference: {fileID: 0}
    - target: {fileID: 288048239926260630, guid: ad2486aa0ee7b464592d013acef8c7c0, type: 3}
      propertyPath: m_LocalPosition.z
      value: 0.37323284
      objectReference: {fileID: 0}
    - target: {fileID: 288048239926260630, guid: ad2486aa0ee7b464592d013acef8c7c0, type: 3}
      propertyPath: m_LocalRotation.x
      value: 2.3181454e-13
      objectReference: {fileID: 0}
    - target: {fileID: 288048239926260630, guid: ad2486aa0ee7b464592d013acef8c7c0, type: 3}
      propertyPath: m_LocalRotation.y
      value: -1
      objectReference: {fileID: 0}
    - target: {fileID: 288048239926260630, guid: ad2486aa0ee7b464592d013acef8c7c0, type: 3}
      propertyPath: m_LocalRotation.z
      value: 0.00000008146034
      objectReference: {fileID: 0}
    - target: {fileID: 288048239926260630, guid: ad2486aa0ee7b464592d013acef8c7c0, type: 3}
      propertyPath: m_LocalRotation.w
      value: 0.0000029504295
      objectReference: {fileID: 0}
    - target: {fileID: 288048239926260630, guid: ad2486aa0ee7b464592d013acef8c7c0, type: 3}
      propertyPath: m_RootOrder
      value: 6
      objectReference: {fileID: 0}
    - target: {fileID: 288048239926260630, guid: ad2486aa0ee7b464592d013acef8c7c0, type: 3}
      propertyPath: m_LocalEulerAnglesHint.x
      value: 0
      objectReference: {fileID: 0}
    - target: {fileID: 288048239926260630, guid: ad2486aa0ee7b464592d013acef8c7c0, type: 3}
      propertyPath: m_LocalEulerAnglesHint.y
      value: -180
      objectReference: {fileID: 0}
    - target: {fileID: 288048239926260630, guid: ad2486aa0ee7b464592d013acef8c7c0, type: 3}
      propertyPath: m_LocalEulerAnglesHint.z
      value: 0
      objectReference: {fileID: 0}
    - target: {fileID: 288048239926260630, guid: ad2486aa0ee7b464592d013acef8c7c0, type: 3}
      propertyPath: m_LocalScale.x
      value: 0.56934637
      objectReference: {fileID: 0}
    - target: {fileID: 288048239926260630, guid: ad2486aa0ee7b464592d013acef8c7c0, type: 3}
      propertyPath: m_LocalScale.y
      value: 0.56934637
      objectReference: {fileID: 0}
    - target: {fileID: 288048239926260630, guid: ad2486aa0ee7b464592d013acef8c7c0, type: 3}
      propertyPath: m_LocalScale.z
      value: 0.56934637
      objectReference: {fileID: 0}
    - target: {fileID: 627279035135387948, guid: ad2486aa0ee7b464592d013acef8c7c0, type: 3}
      propertyPath: m_Name
      value: box2 (6)
      objectReference: {fileID: 0}
    m_RemovedComponents: []
  m_SourcePrefab: {fileID: 100100000, guid: ad2486aa0ee7b464592d013acef8c7c0, type: 3}
--- !u!1001 &6757590398891791853
PrefabInstance:
  m_ObjectHideFlags: 0
  serializedVersion: 2
  m_Modification:
    m_TransformParent: {fileID: 0}
    m_Modifications:
    - target: {fileID: 486575479874527172, guid: 521ffbf244603784c9538abc1c696e33, type: 3}
      propertyPath: m_LocalPosition.x
      value: -22.408
      objectReference: {fileID: 0}
    - target: {fileID: 486575479874527172, guid: 521ffbf244603784c9538abc1c696e33, type: 3}
      propertyPath: m_LocalPosition.y
      value: 0.08408506
      objectReference: {fileID: 0}
    - target: {fileID: 486575479874527172, guid: 521ffbf244603784c9538abc1c696e33, type: 3}
      propertyPath: m_LocalPosition.z
      value: -12.739
      objectReference: {fileID: 0}
    - target: {fileID: 486575479874527172, guid: 521ffbf244603784c9538abc1c696e33, type: 3}
      propertyPath: m_LocalRotation.x
      value: 0
      objectReference: {fileID: 0}
    - target: {fileID: 486575479874527172, guid: 521ffbf244603784c9538abc1c696e33, type: 3}
      propertyPath: m_LocalRotation.y
      value: 0
      objectReference: {fileID: 0}
    - target: {fileID: 486575479874527172, guid: 521ffbf244603784c9538abc1c696e33, type: 3}
      propertyPath: m_LocalRotation.z
      value: 0
      objectReference: {fileID: 0}
    - target: {fileID: 486575479874527172, guid: 521ffbf244603784c9538abc1c696e33, type: 3}
      propertyPath: m_LocalRotation.w
      value: 1
      objectReference: {fileID: 0}
    - target: {fileID: 486575479874527172, guid: 521ffbf244603784c9538abc1c696e33, type: 3}
      propertyPath: m_RootOrder
      value: 0
      objectReference: {fileID: 0}
    - target: {fileID: 486575479874527172, guid: 521ffbf244603784c9538abc1c696e33, type: 3}
      propertyPath: m_LocalEulerAnglesHint.x
      value: 0
      objectReference: {fileID: 0}
    - target: {fileID: 486575479874527172, guid: 521ffbf244603784c9538abc1c696e33, type: 3}
      propertyPath: m_LocalEulerAnglesHint.y
      value: 0
      objectReference: {fileID: 0}
    - target: {fileID: 486575479874527172, guid: 521ffbf244603784c9538abc1c696e33, type: 3}
      propertyPath: m_LocalEulerAnglesHint.z
      value: 0
      objectReference: {fileID: 0}
    - target: {fileID: 486575479874527172, guid: 521ffbf244603784c9538abc1c696e33, type: 3}
      propertyPath: m_LocalScale.x
      value: 0.52692
      objectReference: {fileID: 0}
    - target: {fileID: 486575479874527172, guid: 521ffbf244603784c9538abc1c696e33, type: 3}
      propertyPath: m_LocalScale.y
      value: 0.52692
      objectReference: {fileID: 0}
    - target: {fileID: 486575479874527172, guid: 521ffbf244603784c9538abc1c696e33, type: 3}
      propertyPath: m_LocalScale.z
      value: 0.52692
      objectReference: {fileID: 0}
    - target: {fileID: 976007329296565630, guid: 521ffbf244603784c9538abc1c696e33, type: 3}
      propertyPath: m_Name
      value: platform_With_Boxes
      objectReference: {fileID: 0}
    m_RemovedComponents: []
  m_SourcePrefab: {fileID: 100100000, guid: 521ffbf244603784c9538abc1c696e33, type: 3}
--- !u!4 &6559318551216196137 stripped
Transform:
  m_CorrespondingSourceObject: {fileID: 486575479874527172, guid: 521ffbf244603784c9538abc1c696e33, type: 3}
  m_PrefabInstance: {fileID: 6757590398891791853}
  m_PrefabAsset: {fileID: 0}
--- !u!1001 &6757590399083953098
PrefabInstance:
  m_ObjectHideFlags: 0
  serializedVersion: 2
  m_Modification:
    m_TransformParent: {fileID: 6559318551216196137}
    m_Modifications:
    - target: {fileID: 288048239926260630, guid: ad2486aa0ee7b464592d013acef8c7c0, type: 3}
      propertyPath: m_LocalPosition.x
      value: -0.363834
      objectReference: {fileID: 0}
    - target: {fileID: 288048239926260630, guid: ad2486aa0ee7b464592d013acef8c7c0, type: 3}
      propertyPath: m_LocalPosition.y
      value: 0.49137428
      objectReference: {fileID: 0}
    - target: {fileID: 288048239926260630, guid: ad2486aa0ee7b464592d013acef8c7c0, type: 3}
      propertyPath: m_LocalPosition.z
      value: -0.39112917
      objectReference: {fileID: 0}
    - target: {fileID: 288048239926260630, guid: ad2486aa0ee7b464592d013acef8c7c0, type: 3}
      propertyPath: m_LocalRotation.x
      value: 0.00000008146034
      objectReference: {fileID: 0}
    - target: {fileID: 288048239926260630, guid: ad2486aa0ee7b464592d013acef8c7c0, type: 3}
      propertyPath: m_LocalRotation.y
      value: -0
      objectReference: {fileID: 0}
    - target: {fileID: 288048239926260630, guid: ad2486aa0ee7b464592d013acef8c7c0, type: 3}
      propertyPath: m_LocalRotation.z
      value: -0
      objectReference: {fileID: 0}
    - target: {fileID: 288048239926260630, guid: ad2486aa0ee7b464592d013acef8c7c0, type: 3}
      propertyPath: m_LocalRotation.w
      value: 1
      objectReference: {fileID: 0}
    - target: {fileID: 288048239926260630, guid: ad2486aa0ee7b464592d013acef8c7c0, type: 3}
      propertyPath: m_RootOrder
      value: 0
      objectReference: {fileID: 0}
    - target: {fileID: 288048239926260630, guid: ad2486aa0ee7b464592d013acef8c7c0, type: 3}
      propertyPath: m_LocalEulerAnglesHint.x
      value: 0
      objectReference: {fileID: 0}
    - target: {fileID: 288048239926260630, guid: ad2486aa0ee7b464592d013acef8c7c0, type: 3}
      propertyPath: m_LocalEulerAnglesHint.y
      value: 0
      objectReference: {fileID: 0}
    - target: {fileID: 288048239926260630, guid: ad2486aa0ee7b464592d013acef8c7c0, type: 3}
      propertyPath: m_LocalEulerAnglesHint.z
      value: 0
      objectReference: {fileID: 0}
    - target: {fileID: 288048239926260630, guid: ad2486aa0ee7b464592d013acef8c7c0, type: 3}
      propertyPath: m_LocalScale.x
      value: 0.56934637
      objectReference: {fileID: 0}
    - target: {fileID: 288048239926260630, guid: ad2486aa0ee7b464592d013acef8c7c0, type: 3}
      propertyPath: m_LocalScale.y
      value: 0.56934637
      objectReference: {fileID: 0}
    - target: {fileID: 288048239926260630, guid: ad2486aa0ee7b464592d013acef8c7c0, type: 3}
      propertyPath: m_LocalScale.z
      value: 0.56934637
      objectReference: {fileID: 0}
    - target: {fileID: 627279035135387948, guid: ad2486aa0ee7b464592d013acef8c7c0, type: 3}
      propertyPath: m_Name
      value: box2
      objectReference: {fileID: 0}
    m_RemovedComponents: []
  m_SourcePrefab: {fileID: 100100000, guid: ad2486aa0ee7b464592d013acef8c7c0, type: 3}
--- !u!1001 &6757590399234793909
PrefabInstance:
  m_ObjectHideFlags: 0
  serializedVersion: 2
  m_Modification:
    m_TransformParent: {fileID: 6559318551216196137}
    m_Modifications:
    - target: {fileID: 288048239926260630, guid: ad2486aa0ee7b464592d013acef8c7c0, type: 3}
      propertyPath: m_LocalPosition.x
      value: 0.40704364
      objectReference: {fileID: 0}
    - target: {fileID: 288048239926260630, guid: ad2486aa0ee7b464592d013acef8c7c0, type: 3}
      propertyPath: m_LocalPosition.y
      value: 1.1537138
      objectReference: {fileID: 0}
    - target: {fileID: 288048239926260630, guid: ad2486aa0ee7b464592d013acef8c7c0, type: 3}
      propertyPath: m_LocalPosition.z
      value: 0.37115327
      objectReference: {fileID: 0}
    - target: {fileID: 288048239926260630, guid: ad2486aa0ee7b464592d013acef8c7c0, type: 3}
      propertyPath: m_LocalRotation.x
      value: 0.00000005760124
      objectReference: {fileID: 0}
    - target: {fileID: 288048239926260630, guid: ad2486aa0ee7b464592d013acef8c7c0, type: 3}
      propertyPath: m_LocalRotation.y
      value: 0.7071058
      objectReference: {fileID: 0}
    - target: {fileID: 288048239926260630, guid: ad2486aa0ee7b464592d013acef8c7c0, type: 3}
      propertyPath: m_LocalRotation.z
      value: -0.000000057601078
      objectReference: {fileID: 0}
    - target: {fileID: 288048239926260630, guid: ad2486aa0ee7b464592d013acef8c7c0, type: 3}
      propertyPath: m_LocalRotation.w
      value: 0.7071078
      objectReference: {fileID: 0}
    - target: {fileID: 288048239926260630, guid: ad2486aa0ee7b464592d013acef8c7c0, type: 3}
      propertyPath: m_RootOrder
      value: 7
      objectReference: {fileID: 0}
    - target: {fileID: 288048239926260630, guid: ad2486aa0ee7b464592d013acef8c7c0, type: 3}
      propertyPath: m_LocalEulerAnglesHint.x
      value: 0
      objectReference: {fileID: 0}
    - target: {fileID: 288048239926260630, guid: ad2486aa0ee7b464592d013acef8c7c0, type: 3}
      propertyPath: m_LocalEulerAnglesHint.y
      value: 90
      objectReference: {fileID: 0}
    - target: {fileID: 288048239926260630, guid: ad2486aa0ee7b464592d013acef8c7c0, type: 3}
      propertyPath: m_LocalEulerAnglesHint.z
      value: 0
      objectReference: {fileID: 0}
    - target: {fileID: 288048239926260630, guid: ad2486aa0ee7b464592d013acef8c7c0, type: 3}
      propertyPath: m_LocalScale.x
      value: 0.56934637
      objectReference: {fileID: 0}
    - target: {fileID: 288048239926260630, guid: ad2486aa0ee7b464592d013acef8c7c0, type: 3}
      propertyPath: m_LocalScale.y
      value: 0.56934637
      objectReference: {fileID: 0}
    - target: {fileID: 288048239926260630, guid: ad2486aa0ee7b464592d013acef8c7c0, type: 3}
      propertyPath: m_LocalScale.z
      value: 0.56934637
      objectReference: {fileID: 0}
    - target: {fileID: 627279035135387948, guid: ad2486aa0ee7b464592d013acef8c7c0, type: 3}
      propertyPath: m_Name
      value: box2 (7)
      objectReference: {fileID: 0}
    m_RemovedComponents: []
  m_SourcePrefab: {fileID: 100100000, guid: ad2486aa0ee7b464592d013acef8c7c0, type: 3}
--- !u!1001 &6757590399612321948
PrefabInstance:
  m_ObjectHideFlags: 0
  serializedVersion: 2
  m_Modification:
    m_TransformParent: {fileID: 6559318551216196137}
    m_Modifications:
    - target: {fileID: 288048239926260630, guid: ad2486aa0ee7b464592d013acef8c7c0, type: 3}
      propertyPath: m_LocalPosition.x
      value: 0.4123756
      objectReference: {fileID: 0}
    - target: {fileID: 288048239926260630, guid: ad2486aa0ee7b464592d013acef8c7c0, type: 3}
      propertyPath: m_LocalPosition.y
      value: 0.49137428
      objectReference: {fileID: 0}
    - target: {fileID: 288048239926260630, guid: ad2486aa0ee7b464592d013acef8c7c0, type: 3}
      propertyPath: m_LocalPosition.z
      value: 0.36998406
      objectReference: {fileID: 0}
    - target: {fileID: 288048239926260630, guid: ad2486aa0ee7b464592d013acef8c7c0, type: 3}
      propertyPath: m_LocalRotation.x
      value: 0.000000057601245
      objectReference: {fileID: 0}
    - target: {fileID: 288048239926260630, guid: ad2486aa0ee7b464592d013acef8c7c0, type: 3}
      propertyPath: m_LocalRotation.y
      value: -0.70710576
      objectReference: {fileID: 0}
    - target: {fileID: 288048239926260630, guid: ad2486aa0ee7b464592d013acef8c7c0, type: 3}
      propertyPath: m_LocalRotation.z
      value: 0.00000005760109
      objectReference: {fileID: 0}
    - target: {fileID: 288048239926260630, guid: ad2486aa0ee7b464592d013acef8c7c0, type: 3}
      propertyPath: m_LocalRotation.w
      value: 0.7071079
      objectReference: {fileID: 0}
    - target: {fileID: 288048239926260630, guid: ad2486aa0ee7b464592d013acef8c7c0, type: 3}
      propertyPath: m_RootOrder
      value: 3
      objectReference: {fileID: 0}
    - target: {fileID: 288048239926260630, guid: ad2486aa0ee7b464592d013acef8c7c0, type: 3}
      propertyPath: m_LocalEulerAnglesHint.x
      value: 0
      objectReference: {fileID: 0}
    - target: {fileID: 288048239926260630, guid: ad2486aa0ee7b464592d013acef8c7c0, type: 3}
      propertyPath: m_LocalEulerAnglesHint.y
      value: -90
      objectReference: {fileID: 0}
    - target: {fileID: 288048239926260630, guid: ad2486aa0ee7b464592d013acef8c7c0, type: 3}
      propertyPath: m_LocalEulerAnglesHint.z
      value: 0
      objectReference: {fileID: 0}
    - target: {fileID: 288048239926260630, guid: ad2486aa0ee7b464592d013acef8c7c0, type: 3}
      propertyPath: m_LocalScale.x
      value: 0.56934637
      objectReference: {fileID: 0}
    - target: {fileID: 288048239926260630, guid: ad2486aa0ee7b464592d013acef8c7c0, type: 3}
      propertyPath: m_LocalScale.y
      value: 0.56934637
      objectReference: {fileID: 0}
    - target: {fileID: 288048239926260630, guid: ad2486aa0ee7b464592d013acef8c7c0, type: 3}
      propertyPath: m_LocalScale.z
      value: 0.56934637
      objectReference: {fileID: 0}
    - target: {fileID: 627279035135387948, guid: ad2486aa0ee7b464592d013acef8c7c0, type: 3}
      propertyPath: m_Name
      value: box2 (3)
      objectReference: {fileID: 0}
    m_RemovedComponents: []
  m_SourcePrefab: {fileID: 100100000, guid: ad2486aa0ee7b464592d013acef8c7c0, type: 3}
--- !u!1001 &6757590400353316954
PrefabInstance:
  m_ObjectHideFlags: 0
  serializedVersion: 2
  m_Modification:
    m_TransformParent: {fileID: 6559318551216196137}
    m_Modifications:
    - target: {fileID: 288048239926260630, guid: ad2486aa0ee7b464592d013acef8c7c0, type: 3}
      propertyPath: m_LocalPosition.x
      value: -0.3657344
      objectReference: {fileID: 0}
    - target: {fileID: 288048239926260630, guid: ad2486aa0ee7b464592d013acef8c7c0, type: 3}
      propertyPath: m_LocalPosition.y
      value: 0.49137428
      objectReference: {fileID: 0}
    - target: {fileID: 288048239926260630, guid: ad2486aa0ee7b464592d013acef8c7c0, type: 3}
      propertyPath: m_LocalPosition.z
      value: 0.36998406
      objectReference: {fileID: 0}
    - target: {fileID: 288048239926260630, guid: ad2486aa0ee7b464592d013acef8c7c0, type: 3}
      propertyPath: m_LocalRotation.x
      value: 0.000000057601245
      objectReference: {fileID: 0}
    - target: {fileID: 288048239926260630, guid: ad2486aa0ee7b464592d013acef8c7c0, type: 3}
      propertyPath: m_LocalRotation.y
      value: -0.70710576
      objectReference: {fileID: 0}
    - target: {fileID: 288048239926260630, guid: ad2486aa0ee7b464592d013acef8c7c0, type: 3}
      propertyPath: m_LocalRotation.z
      value: 0.00000005760109
      objectReference: {fileID: 0}
    - target: {fileID: 288048239926260630, guid: ad2486aa0ee7b464592d013acef8c7c0, type: 3}
      propertyPath: m_LocalRotation.w
      value: 0.7071079
      objectReference: {fileID: 0}
    - target: {fileID: 288048239926260630, guid: ad2486aa0ee7b464592d013acef8c7c0, type: 3}
      propertyPath: m_RootOrder
      value: 2
      objectReference: {fileID: 0}
    - target: {fileID: 288048239926260630, guid: ad2486aa0ee7b464592d013acef8c7c0, type: 3}
      propertyPath: m_LocalEulerAnglesHint.x
      value: 0
      objectReference: {fileID: 0}
    - target: {fileID: 288048239926260630, guid: ad2486aa0ee7b464592d013acef8c7c0, type: 3}
      propertyPath: m_LocalEulerAnglesHint.y
      value: -90
      objectReference: {fileID: 0}
    - target: {fileID: 288048239926260630, guid: ad2486aa0ee7b464592d013acef8c7c0, type: 3}
      propertyPath: m_LocalEulerAnglesHint.z
      value: 0
      objectReference: {fileID: 0}
    - target: {fileID: 288048239926260630, guid: ad2486aa0ee7b464592d013acef8c7c0, type: 3}
      propertyPath: m_LocalScale.x
      value: 0.56934637
      objectReference: {fileID: 0}
    - target: {fileID: 288048239926260630, guid: ad2486aa0ee7b464592d013acef8c7c0, type: 3}
      propertyPath: m_LocalScale.y
      value: 0.56934637
      objectReference: {fileID: 0}
    - target: {fileID: 288048239926260630, guid: ad2486aa0ee7b464592d013acef8c7c0, type: 3}
      propertyPath: m_LocalScale.z
      value: 0.56934637
      objectReference: {fileID: 0}
    - target: {fileID: 627279035135387948, guid: ad2486aa0ee7b464592d013acef8c7c0, type: 3}
      propertyPath: m_Name
      value: box2 (2)
      objectReference: {fileID: 0}
    m_RemovedComponents: []
  m_SourcePrefab: {fileID: 100100000, guid: ad2486aa0ee7b464592d013acef8c7c0, type: 3}
--- !u!1001 &6757590400452457119
PrefabInstance:
  m_ObjectHideFlags: 0
  serializedVersion: 2
  m_Modification:
    m_TransformParent: {fileID: 6559318551216196137}
    m_Modifications:
    - target: {fileID: 288048239926260630, guid: ad2486aa0ee7b464592d013acef8c7c0, type: 3}
      propertyPath: m_LocalPosition.x
      value: 0.44788593
      objectReference: {fileID: 0}
    - target: {fileID: 288048239926260630, guid: ad2486aa0ee7b464592d013acef8c7c0, type: 3}
      propertyPath: m_LocalPosition.y
      value: 0.49137428
      objectReference: {fileID: 0}
    - target: {fileID: 288048239926260630, guid: ad2486aa0ee7b464592d013acef8c7c0, type: 3}
      propertyPath: m_LocalPosition.z
      value: -0.3890532
      objectReference: {fileID: 0}
    - target: {fileID: 288048239926260630, guid: ad2486aa0ee7b464592d013acef8c7c0, type: 3}
      propertyPath: m_LocalRotation.x
      value: 0.000000057601245
      objectReference: {fileID: 0}
    - target: {fileID: 288048239926260630, guid: ad2486aa0ee7b464592d013acef8c7c0, type: 3}
      propertyPath: m_LocalRotation.y
      value: -0.70710576
      objectReference: {fileID: 0}
    - target: {fileID: 288048239926260630, guid: ad2486aa0ee7b464592d013acef8c7c0, type: 3}
      propertyPath: m_LocalRotation.z
      value: 0.00000005760109
      objectReference: {fileID: 0}
    - target: {fileID: 288048239926260630, guid: ad2486aa0ee7b464592d013acef8c7c0, type: 3}
      propertyPath: m_LocalRotation.w
      value: 0.7071079
      objectReference: {fileID: 0}
    - target: {fileID: 288048239926260630, guid: ad2486aa0ee7b464592d013acef8c7c0, type: 3}
      propertyPath: m_RootOrder
      value: 1
      objectReference: {fileID: 0}
    - target: {fileID: 288048239926260630, guid: ad2486aa0ee7b464592d013acef8c7c0, type: 3}
      propertyPath: m_LocalEulerAnglesHint.x
      value: 0
      objectReference: {fileID: 0}
    - target: {fileID: 288048239926260630, guid: ad2486aa0ee7b464592d013acef8c7c0, type: 3}
      propertyPath: m_LocalEulerAnglesHint.y
      value: -90
      objectReference: {fileID: 0}
    - target: {fileID: 288048239926260630, guid: ad2486aa0ee7b464592d013acef8c7c0, type: 3}
      propertyPath: m_LocalEulerAnglesHint.z
      value: 0
      objectReference: {fileID: 0}
    - target: {fileID: 288048239926260630, guid: ad2486aa0ee7b464592d013acef8c7c0, type: 3}
      propertyPath: m_LocalScale.x
      value: 0.56934637
      objectReference: {fileID: 0}
    - target: {fileID: 288048239926260630, guid: ad2486aa0ee7b464592d013acef8c7c0, type: 3}
      propertyPath: m_LocalScale.y
      value: 0.56934637
      objectReference: {fileID: 0}
    - target: {fileID: 288048239926260630, guid: ad2486aa0ee7b464592d013acef8c7c0, type: 3}
      propertyPath: m_LocalScale.z
      value: 0.56934637
      objectReference: {fileID: 0}
    - target: {fileID: 627279035135387948, guid: ad2486aa0ee7b464592d013acef8c7c0, type: 3}
      propertyPath: m_Name
      value: box2 (1)
      objectReference: {fileID: 0}
    m_RemovedComponents: []
  m_SourcePrefab: {fileID: 100100000, guid: ad2486aa0ee7b464592d013acef8c7c0, type: 3}
